{
    "/home/edit/*": "public_html\\HomeController",
    "/home": "public_html\\HomeController",
    "/about/*": "public_html\\AboutController",
    "/": "public_html\\HomeController",
    "/404": "public_html\\NotFoundController"
}
